{

  "codigos": [

    {

      "key": "0",

      "nombre": "C++",

      "foto": "https://upload.wikimedia.org/wikipedia/commons/thumb/1/18/ISO_C%2B%2B_Logo.svg/1200px-ISO_C%2B%2B_Logo.svg.png",

      "ejemplo": "#include <iostream>\nusing namespace std;\nint main()\n{\n  cout << \"Hello, World!\";\n  return 0;\n}"

    },

    {

      "key": "1",

      "nombre": "Ruby",

      "foto": "https://cdn-images-1.medium.com/max/1600/1*Qc0XxYm-qAZL-7tjjlNfrg.png",

      "ejemplo": "puts 'Hello, World!'"

    },

    {

      "key": "2",

      "nombre": "Java",

      "foto": "https://upload.wikimedia.org/wikipedia/en/thumb/3/30/Java_programming_language_logo.svg/1200px-Java_programming_language_logo.svg.png",

      "ejemplo": "public class HelloWorld {\n  public static void main(String[] args) {\n    System.out.println(\"Hello, World!\");\n  }\n}"

    },

    {

      "key": "3",

      "nombre": "Python",

      "foto": "https://www.python.org/static/opengraph-icon-200x200.png",

      "ejemplo": "print(\"Hello, World!\")"

    },

    {

      "key": "4",

      "nombre": "Pascal",

      "foto": "https://is3-ssl.mzstatic.com/image/thumb/Purple128/v4/72/d5/1f/72d51f5c-0d83-63de-d637-0184dffa3d7c/source/512x512bb.jpg",

      "ejemplo": "program Hello;\nbegin\n  writeln ('Hello, World!');\nend."

    },

    {

      "key": "5",

      "nombre": "Javascript",

      "foto": "https://www.gfxmag.com/wp-content/uploads/2016/07/javascript-vector-logo-1.png",

      "ejemplo": "alert( 'Hello, World!' );"

    },

    {

      "key": "6",

      "nombre": "Swift",

      "foto": "https://developer.apple.com/swift/images/swift-og.png",

      "ejemplo": "import Swift\nprint(\"Hello, World!\")"

    },

    {

      "key": "7",

      "nombre": "PHP",

      "foto": "https://upload.wikimedia.org/wikipedia/commons/thumb/2/27/PHP-logo.svg/1200px-PHP-logo.svg.png",

      "ejemplo": "<?php\n  echo \"Hello, World!\";\n?>"

    },

    {

      "key": "8",

      "nombre": "C#",

      "foto": "https://developer.stg.fedoraproject.org/static/logo/csharp.png",

      "ejemplo": "using System;\nnamespace HelloWorld\n{\n  class Hello\n  {\n    static void Main()\n    {\n      Console.WriteLine(\"Hello, World!\");\n      Console.WriteLine(\"Press any key to exit.\");\n      Console.ReadKey();\n    }\n  }\n}"

    },

    {

      "key": "9",

      "nombre": "Rust",

      "foto": "https://upload.wikimedia.org/wikipedia/commons/thumb/d/d5/Rust_programming_language_black_logo.svg/1200px-Rust_programming_language_black_logo.svg.png",

      "ejemplo": "fn main() {\n  println!(\"Hello, World!\");\n}"

    },

    {

      "key": "10",

      "nombre": "Bash",

      "foto": "https://upload.wikimedia.org/wikipedia/commons/thumb/2/20/Bash_Logo_black_and_white_icon_only.svg/896px-Bash_Logo_black_and_white_icon_only.svg.png",

      "ejemplo": "#!/bin/sh\necho Hello, World!"

    },

    {

      "key": "11",

      "nombre": "Assembly",

      "foto": "https://xyne.archlinux.ca/img/arch_linux_programming_language_logos/arch-asm_logo.png",

      "ejemplo": "section     .text\nglobal      _start                              ;must be declared for linker (ld)\n\n_start:                                         ;tell linker entry point\n\n  mov     edx,len                             ;message length\n  mov     ecx,msg                             ;message to write\n  mov     ebx,1                               ;file descriptor (stdout)\n  mov     eax,4                               ;system call number (sys_write)\n  int     0x80                                ;call kernel\n\n  mov     eax,1                               ;system call number (sys_exit)\n  int     0x80                                ;call kernel\n\nsection     .data\n\nmsg     db  'Hello, World!',0xa                 ;our dear string\nlen     equ $ - msg                             ;length of our dear string"

    },

    {

      "key": "12",

      "nombre": "Go",

      "foto": "https://upload.wikimedia.org/wikipedia/commons/thumb/2/23/Go_Logo_Aqua.svg/1200px-Go_Logo_Aqua.svg.png",

      "ejemplo": "package main\n\nimport \"fmt\"\n\nfunc main() {\n  fmt.Println(\"Hello, World!\")\n}"

    }

  ]

}